{
  "id": "f0b444c1-fa7c-11f0-9fa6-d1bbe297d459",
  "timestamp": "2026-01-26T06:07:05.640Z",
  "model": "deepseek-chat",
  "status": "success",
  "question": "REST API",
  "answer": {
    "role": "assistant",
    "content": "<html lang=\"en\">\n<head>\n    <meta charset=\"UTF-8\">\n    <meta name=\"viewport\" content=\"width=device-width, initial-scale=1.0\">\n    <title>Comprehensive Guide to REST APIs</title>\n    <style>\n        body {\n            font-family: 'Segoe UI', Tahoma, Geneva, Verdana, sans-serif;\n            line-height: 1.6;\n            color: #333;\n            max-width: 900px;\n            margin: 0 auto;\n            padding: 20px;\n            background-color: #f9f9f9;\n        }\n        h1, h2, h3 {\n            color: #2c3e50;\n        }\n        h1 {\n            border-bottom: 2px solid #3498db;\n            padding-bottom: 10px;\n        }\n        h2 {\n            margin-top: 30px;\n            border-left: 4px solid #3498db;\n            padding-left: 10px;\n        }\n        h3 {\n            margin-top: 20px;\n        }\n        code {\n            background-color: #f0f0f0;\n            padding: 2px 5px;\n            border-radius: 3px;\n            font-family: 'Courier New', Courier, monospace;\n        }\n        pre {\n            background-color: #f0f0f0;\n            padding: 15px;\n            border-radius: 5px;\n            overflow-x: auto;\n        }\n        .example {\n            background-color: #e8f4fc;\n            border-left: 4px solid #3498db;\n            padding: 15px;\n            margin: 15px 0;\n        }\n        .definition {\n            background-color: #f5f5f5;\n            border-left: 4px solid #7f8c8d;\n            padding: 10px 15px;\n            margin: 15px 0;\n        }\n        .note {\n            background-color: #fffde7;\n            border-left: 4px solid #ffc107;\n            padding: 10px 15px;\n            margin: 15px 0;\n        }\n        .demo-button {\n            background-color: #3498db;\n            color: white;\n            border: none;\n            padding: 10px 15px;\n            border-radius: 4px;\n            cursor: pointer;\n            font-size: 16px;\n            margin: 20px 0;\n        }\n        .demo-button:hover {\n            background-color: #2980b9;\n        }\n        #demo-result {\n            margin-top: 10px;\n            padding: 15px;\n            background-color: #e8f4fc;\n            border-radius: 4px;\n            display: none;\n        }\n    </style>\n</head>\n<body>\n    <h1>Comprehensive Guide to REST APIs</h1>\n    \n    <div class=\"definition\">\n        <strong>REST (Representational State Transfer)</strong> is an architectural style for designing networked applications. A <strong>REST API (Application Programming Interface)</strong> is an interface that follows REST principles to enable interaction between systems over HTTP.\n    </div>\n\n    <h2>Core Principles of REST</h2>\n    \n    <h3>1. Client-Server Architecture</h3>\n    <p>REST enforces a separation between the client and server. This separation allows each to evolve independently, improving portability and scalability.</p>\n    \n    <h3>2. Statelessness</h3>\n    <p>Each request from client to server must contain all the information needed to understand and process the request. The server doesn't store any client context between requests.</p>\n    \n    <h3>3. Cacheability</h3>\n    <p>Responses must define themselves as cacheable or non-cacheable to improve network efficiency.</p>\n    \n    <h3>4. Uniform Interface</h3>\n    <p>REST APIs have four guiding principles for their interface:</p>\n    <ul>\n        <li><strong>Resource Identification in Requests</strong> - Resources are identified in requests using URIs</li>\n        <li><strong>Resource Manipulation Through Representations</strong> - Resources are manipulated through their representations</li>\n        <li><strong>Self-descriptive Messages</strong> - Each message contains enough information to describe how to process it</li>\n        <li><strong>Hypermedia as the Engine of Application State (HATEOAS)</strong> - Clients interact with the application through hypermedia provided dynamically by the server</li>\n    </ul>\n    \n    <h3>5. Layered System</h3>\n    <p>Components cannot see beyond the immediate layer they're interacting with, improving scalability through load balancing and shared caches.</p>\n    \n    <h3>6. Code on Demand (Optional)</h3>\n    <p>Servers can temporarily extend or customize client functionality by transferring executable code (e.g., JavaScript).</p>\n\n    <h2>REST API Components</h2>\n    \n    <h3>Resources</h3>\n    <p>In REST, everything is a resource that can be accessed via a unique URI. Resources can be:</p>\n    <ul>\n        <li>Documents (e.g., HTML, JSON, XML)</li>\n        <li>Images</li>\n        <li>Temporal services</li>\n        <li>Collections of other resources</li>\n        <li>Virtual objects</li>\n    </ul>\n    \n    <h3>HTTP Methods</h3>\n    <p>REST APIs use standard HTTP methods to perform operations:</p>\n    <table border=\"1\" cellpadding=\"8\" cellspacing=\"0\" style=\"width:100%; border-collapse: collapse;\">\n        <tr>\n            <th>Method</th>\n            <th>Description</th>\n            <th>Idempotent</th>\n            <th>Safe</th>\n        </tr>\n        <tr>\n            <td>GET</td>\n            <td>Retrieve a resource</td>\n            <td>Yes</td>\n            <td>Yes</td>\n        </tr>\n        <tr>\n            <td>POST</td>\n            <td>Create a new resource</td>\n            <td>No</td>\n            <td>No</td>\n        </tr>\n        <tr>\n            <td>PUT</td>\n            <td>Update an existing resource (full update)</td>\n            <td>Yes</td>\n            <td>No</td>\n        </tr>\n        <tr>\n            <td>PATCH</td>\n            <td>Partially update a resource</td>\n            <td>No</td>\n            <td>No</td>\n        </tr>\n        <tr>\n            <td>DELETE</td>\n            <td>Remove a resource</td>\n            <td>Yes</td>\n            <td>No</td>\n        </tr>\n        <tr>\n            <td>HEAD</td>\n            <td>Like GET but without response body</td>\n            <td>Yes</td>\n            <td>Yes</td>\n        </tr>\n        <tr>\n            <td>OPTIONS</td>\n            <td>Returns supported HTTP methods</td>\n            <td>Yes</td>\n            <td>Yes</td>\n        </tr>\n    </table>\n    \n    <div class=\"note\">\n        <strong>Idempotent</strong> means the operation can be applied multiple times without changing the result beyond the initial application.<br>\n        <strong>Safe</strong> means the operation doesn't modify the resource.\n    </div>\n    \n    <h3>Status Codes</h3>\n    <p>HTTP status codes indicate the result of the API request:</p>\n    <ul>\n        <li><strong>2xx (Success)</strong>: Request was successfully received and processed\n            <ul>\n                <li>200 OK>: Standard success response</li>\n                <li>201 Created>: Resource was created</li>\n                <li>204 No Content>: Success but no content to return</li>\n            </ul>\n        </li>\n        <li><strong>3xx (Redirection)</strong>: Further action needs to be taken\n            <ul>\n                <li>301 Moved Permanently</li>\n                <li>304 Not Modified (cached version is still valid)</li>\n            </ul>\n        </li>\n        <li><strong>4xx (Client Error)</strong>: Error from client side\n            <ul>\n                <li>400 Bad Request</li>\n                <li>401 Unauthorized</li>\n                <li>403 Forbidden</li>\n                <li>404 Not Found</li>\n            </ul>\n        </li>\n        <li><strong>5xx (Server Error)</strong>: Error from server side\n            <ul>\n                <li>500 Internal Server Error</li>\n                <li>503 Service Unavailable</li>\n            </ul>\n        </li>\n    </ul>\n\n    <h2>REST API Design Best Practices</h2>\n    \n    <h3>URI Design</h3>\n    <ul>\n        <li>Use nouns (not verbs) to represent resources\n            <div class=\"example\">\n                <strong>Good:</strong> <code>/users</code>, <code>/users/123</code><br>\n                <strong>Bad:</strong> <code>/getUser</code>, <code>/createUser</code>\n            </div>\n        </li>\n        <li>Use plural nouns for collections</li>\n        <li>Use hyphens (-) for multi-word path segments\n            <div class=\"example\">\n                <code>/product-categories</code> instead of <code>/productCategories</code>\n            </div>\n        </li>\n        <li>Use lowercase letters in URIs</li>\n        <li>Don't use file extensions in URIs\n            <div class=\"example\">\n                <code>/users/123</code> not <code>/users/123.json</code>\n            </div>\n        </li>\n    </ul>\n    \n    <h3>Versioning</h3>\n    <p>API versioning strategies:</p>\n    <ul>\n        <li>URI Path: <code>/v1/users</code></li>\n        <li>Query Parameter: <code>/users?version=1</code></li>\n        <li>Custom Header: <code>X-API-Version: 1</code></li>\n        <li>Content Negotiation: <code>Accept: application/vnd.myapi.v1+json</code></li>\n    </ul>\n    \n    <h3>Response Format</h3>\n    <p>Common response formats include JSON and XML. JSON is more common in modern APIs.</p>\n    <div class=\"example\">\n        <strong>Example JSON Response:</strong>\n        <pre>{\n    \"id\": 123,\n    \"name\": \"John Doe\",\n    \"email\": \"john@example.com\",\n    \"active\": true,\n    \"created_at\": \"2023-01-15T10:30:00Z\",\n    \"links\": [\n        {\n            \"rel\": \"self\",\n            \"href\": \"/users/123\"\n        }\n    ]\n}</pre>\n    </div>\n    \n    <h3>Pagination</h3>\n    <p>For large collections, implement pagination:</p>\n    <div class=\"example\">\n        <pre>GET /users?page=2&limit=20\n\nResponse:\n{\n    \"data\": [...],\n    \"pagination\": {\n        \"total\": 100,\n        \"page\": 2,\n        \"limit\": 20,\n        \"total_pages\": 5\n    }\n}</pre>\n    </div>\n    \n    <h3>Filtering, Sorting, and Searching</h3>\n    <p>Allow clients to request specific data:</p>\n    <div class=\"example\">\n        <code>GET /users?active=true&sort=-created_at&name=John</code><br>\n        (Returns active users named John, sorted by creation date descending)\n    </div>\n    \n    <h2>Authentication and Security</h2>\n    \n    <h3>Common Authentication Methods</h3>\n    <ul>\n        <li><strong>Basic Auth</strong>: Username and password in Authorization header</li>\n        <li><strong>API Keys</strong>: Static token in header or query parameter</li>\n        <li><strong>OAuth 2.0</strong>: Token-based authorization framework</li>\n        <li><strong>JWT (JSON Web Tokens)</strong>: Self-contained tokens with claims</li>\n    </ul>\n    \n    <h3>Security Best Practices</h3>\n    <ul>\n        <li>Always use HTTPS</li>\n        <li>Validate and sanitize all input</li>\n        <li>Implement rate limiting</li>\n        <li>Use proper CORS headers</li>\n        <li>Don't expose sensitive data in URLs</li>\n    </ul>\n    \n    <h2>REST vs Other API Styles</h2>\n    \n    <h3>REST vs SOAP</h3>\n    <ul>\n        <li>REST is lightweight, SOAP is more rigid and verbose</li>\n        <li>REST uses standard HTTP, SOAP uses XML envelopes</li>\n        <li>REST is more flexible, SOAP has strict standards</li>\n    </ul>\n    \n    <h3>REST vs GraphQL</h3>\n    <ul>\n        <li>REST has fixed endpoints, GraphQL has a single endpoint</li>\n        <li>REST returns fixed data structures, GraphQL lets clients specify what they need</li>\n        <li>REST is simpler for simple needs, GraphQL is more flexible for complex needs</li>\n    </ul>\n    \n    <h2>Simple REST API Demonstration</h2>\n    \n    <p>Below is a simple demonstration of how a REST API request might work:</p>\n    \n    <button class=\"demo-button\" onclick=\"runDemo()\">Run API Demo</button>\n    \n    <div id=\"demo-result\"></div>\n    \n    <script>\n        function runDemo() {\n            const demoResult = document.getElementById('demo-result');\n            demoResult.style.display = 'block';\n            \n            // Simulate API request/response\n            demoResult.innerHTML = `\n                <h3>Simulated API Request:</h3>\n                <pre>GET /api/users/123 HTTP/1.1\nHost: example.com\nAccept: application/json\nAuthorization: Bearer abc123...</pre>\n                \n                <h3>Simulated API Response:</h3>\n                <pre>HTTP/1.1 200 OK\nContent-Type: application/json\n{\n    \"id\": 123,\n    \"username\": \"johndoe\",\n    \"name\": \"John Doe\",\n    \"email\": \"john@example.com\",\n    \"created_at\": \"2023-01-15T10:30:00Z\",\n    \"links\": [\n        {\n            \"rel\": \"self\",\n            \"href\": \"/api/users/123\"\n        },\n        {\n            \"rel\": \"posts\",\n            \"href\": \"/api/users/123/posts\"\n        }\n    ]\n}</pre>\n            `;\n        }\n    </script>\n    \n    <h2>Conclusion</h2>\n    \n    <p>REST APIs provide a standardized way for systems to communicate over HTTP. By following REST principles and best practices, developers can create APIs that are:</p>\n    <ul>\n        <li>Scalable</li>\n        <li>Maintainable</li>\n        <li>Easy to understand</li>\n        <li>Interoperable</li>\n    </ul>\n    \n    <p>Understanding REST is fundamental for modern web development, as it forms the backbone of most web services and microservices architectures.</p>\n    \n    <div class=\"note\">\n        <strong>Further Reading:</strong> Roy Fielding's dissertation on REST architecture, HTTP/1.1 RFCs, OpenAPI Specification\n    </div>\n</body>\n</html>"
  },
  "messages": [
    {
      "role": "system",
      "content": "Generate a single, self-contained HTML file with embedded CSS and JavaScript that explains the concept REST API through COMPREHENSIVE TEXTUAL EXPLANATIONS and educational content. Focus on:\n\n- Detailed written explanations of the concept, theory, and algorithms\n- Step-by-step textual descriptions and educational narrative\n- Rich pedagogical content with definitions, examples, and explanations\n- Thorough documentation as the PRIMARY goal\n\nIMPORTANT: Keep interactivity EXTREMELY LIMITED - the page should be mostly STATIC with extensive text content. Include at most 1 button that triggers a simple demonstration, but the emphasis should be on reading and understanding through text rather than hands-on manipulation.\n\nOnly respond with the complete HTML file.\n"
    },
    {
      "role": "user",
      "content": "REST API"
    }
  ],
  "topic": "REST API",
  "hasFSM": true,
  "hasTest": true,
  "evaluation": {
    "score": null,
    "notes": ""
  }
}